ee273_project_group_07.vcd
$date
	Mon May 12 19:35:01 2025
$end

$version
	Synopsys VCS version U-2023.03-SP2-8
$end

$timescale
	10ps
$end

$comment Csum: 1 fd51bcd6aab08092 $end


$scope module i2c_tb $end

$scope begin unnamed$$_vcs_3 $end
$upscope $end


$scope begin unnamed$$_vcs_0 $end
$upscope $end


$scope begin unnamed$$_vcs_1 $end
$upscope $end


$scope begin unnamed$$_vcs_2 $end
$upscope $end


$scope begin unnamed$$_vcs_4 $end
$upscope $end


$scope module apb_if_inst $end
$var reg 1 ! PCLK $end
$var reg 1 " PRESET $end
$var reg 5 # PADDR [4:0] $end
$var reg 1 $ PSEL $end
$var reg 1 % PENABLE $end
$var reg 1 & PWRITE $end
$var reg 32 ' PWDATA [31:0] $end
$var reg 32 ( PRDATA [31:0] $end
$var reg 1 ) PREADY $end
$var reg 1 * PSLVERR $end
$upscope $end


$scope module i2c_if_inst $end
$var reg 1 + Interrupt $end
$var reg 1 , SCL_drive $end
$var reg 1 - SCL_result $end
$var reg 1 . SDA_drive $end
$var reg 1 / SDA_result $end
$upscope $end


$scope module dut $end
$upscope $end

$upscope $end

$enddefinitions $end

#0
$dumpvars
b00000000000000000000000000000000 (
bxxxxxxxxxxxxxxxxxxxxxxxxxxxxxxxx '
bxxxxx #
0!
x%
1)
1"
x$
0*
x&
0+
1,
1-
1.
1/
$end
#500
1!
#1000
0!
#1500
1!
#2000
0"
0!
#2500
1!
#3000
0!
#3500
1!
#4000
0!
#4500
1!
#5000
0!
#5500
1!
#6000
0!
#6500
1!
#7000
0!
#7500
1!
#8000
0!
#8500
1!
#9000
0!
#9500
1!
b00100 #
b00000000000000000000000000000010 '
1&
1$
#10000
0!
#10500
1!
1%
#11000
0!
#11500
1!
0$
0%
b00000 #
b00000000000000000000000000011100 '
1$
#12000
0!
#12500
1!
1%
#13000
0!
#13500
1!
0$
0%
b01000 #
b00000000000000000000000011000000 '
1$
#14000
0!
#14500
1!
1%
#15000
0!
#15500
1!
0$
0%
#16000
0!
#16500
1!
#17000
0!
#17500
1!
#18000
0!
#18500
1!
#19000
0!
#19500
1!
#20000
0!
#20500
1!
#21000
0!
#21500
1!
#22000
0!
#22500
1!
#23000
0!
#23500
1!
#24000
0!
#24500
1!
#25000
0!
#25500
1!
b00000000000000000000000011110000 '
1$
#26000
0!
#26500
1!
1%
#27000
0!
#27500
1!
0$
0%
#28000
0!
#28500
1!
#29000
0!
#29500
1!
#30000
0!
#30500
1!
#31000
0!
#31500
1!
#32000
0!
#32500
1!
#33000
0!
#33500
1!
#34000
0!
#34500
1!
#35000
0!
#35500
1!
#36000
0!
#36500
1!
#37000
0!
#37500
1!
#38000
0!
#38500
1!
#39000
0!
#39500
1!
#40000
0!
#40500
1!
#41000
0!
#41500
1!
#42000
0!
#42500
1!
#43000
0!
#43500
1!
#44000
0!
#44500
1!
#45000
0!
#45500
1!
#46000
0!
#46500
1!
#47000
0!
#47500
1!
#47600
0.
#48000
0!
#48500
1!
#49000
0!
#49500
1!
#50000
0!
#50500
1!
#51000
0!
#51500
1!
#52000
0!
#52500
1!
#53000
0!
#53500
1!
#54000
0!
#54500
1!
#55000
0!
#55500
1!
#56000
0!
#56500
1!
#56600
0,
#57000
0!
#57500
1!
b10000 #
b00000000000000000000000001011111 '
1$
#58000
0!
#58500
1!
1%
#59000
0!
#59500
1!
0$
0%
#60000
0!
#60500
1!
#61000
0!
#61500
1!
#62000
0!
#62500
1!
#63000
0!
#63500
1!
#64000
0!
#64500
1!
#65000
0!
#65500
1!
#66000
0!
#66500
1!
#67000
0!
#67500
1!
#68000
0!
#68500
1!
#69000
0!
#69500
1!
#70000
0!
#70500
1!
#71000
0!
#71500
1!
#72000
0!
#72500
1!
#73000
0!
#73500
1!
#74000
0!
#74500
1!
#74600
1,
#75000
0!
#75500
1!
#76000
0!
#76500
1!
#77000
0!
#77500
1!
#78000
0!
#78500
1!
#79000
0!
#79500
1!
#80000
0!
#80500
1!
#81000
0!
#81500
1!
#82000
0!
#82500
1!
#83000
0!
#83500
1!
#84000
0!
#84500
1!
#85000
0!
#85500
1!
#86000
0!
#86500
1!
#87000
0!
#87500
1!
#88000
0!
#88500
1!
#89000
0!
#89500
1!
#90000
0!
#90500
1!
#91000
0!
#91500
1!
#92000
0!
#92500
1!
#93000
0!
#93500
1!
#93600
0,
#94000
0!
#94500
1!
#95000
0!
#95500
1!
#96000
0!
#96500
1!
#97000
0!
#97500
1!
#98000
0!
#98500
1!
#99000
0!
#99500
1!
#100000
0!
#100500
1!
#101000
0!
#101500
1!
#102000
0!
#102500
1!
#102600
1.
#103000
0!
#103500
1!
#104000
0!
#104500
1!
#105000
0!
#105500
1!
#106000
0!
#106500
1!
#107000
0!
#107500
1!
#108000
0!
#108500
1!
#109000
0!
#109500
1!
#110000
0!
#110500
1!
#110600
1,
#111000
0!
#111500
1!
#112000
0!
#112500
1!
#113000
0!
#113500
1!
#114000
0!
#114500
1!
#115000
0!
#115500
1!
#116000
0!
#116500
1!
#117000
0!
#117500
1!
#118000
0!
#118500
1!
#119000
0!
#119500
1!
#120000
0!
#120500
1!
#121000
0!
#121500
1!
#122000
0!
#122500
1!
#123000
0!
#123500
1!
#124000
0!
#124500
1!
#125000
0!
#125500
1!
#126000
0!
#126500
1!
#127000
0!
#127500
1!
#128000
0!
#128500
1!
#129000
0!
#129500
1!
#129600
0,
#130000
0!
#130500
1!
#131000
0!
#131500
1!
#132000
0!
#132500
1!
#133000
0!
#133500
1!
#134000
0!
#134500
1!
#135000
0!
#135500
1!
#136000
0!
#136500
1!
#137000
0!
#137500
1!
#138000
0!
#138500
1!
#138600
0.
#139000
0!
#139500
1!
#140000
0!
#140500
1!
#141000
0!
#141500
1!
#142000
0!
#142500
1!
#143000
0!
#143500
1!
#144000
0!
#144500
1!
#145000
0!
#145500
1!
#146000
0!
#146500
1!
#146600
1,
#147000
0!
#147500
1!
#148000
0!
#148500
1!
#149000
0!
#149500
1!
#150000
0!
#150500
1!
#151000
0!
#151500
1!
#152000
0!
#152500
1!
#153000
0!
#153500
1!
#154000
0!
#154500
1!
#155000
0!
#155500
1!
#156000
0!
#156500
1!
#157000
0!
#157500
1!
#158000
0!
#158500
1!
#159000
0!
#159500
1!
#160000
0!
#160500
1!
#161000
0!
#161500
1!
#162000
0!
#162500
1!
#163000
0!
#163500
1!
#164000
0!
#164500
1!
#165000
0!
#165500
1!
#165600
0,
#166000
0!
#166500
1!
#167000
0!
#167500
1!
#168000
0!
#168500
1!
#169000
0!
#169500
1!
#170000
0!
#170500
1!
#171000
0!
#171500
1!
#172000
0!
#172500
1!
#173000
0!
#173500
1!
#174000
0!
#174500
1!
#174600
1.
#175000
0!
#175500
1!
#176000
0!
#176500
1!
#177000
0!
#177500
1!
#178000
0!
#178500
1!
#179000
0!
#179500
1!
#180000
0!
#180500
1!
#181000
0!
#181500
1!
#182000
0!
#182500
1!
#182600
1,
#183000
0!
#183500
1!
#184000
0!
#184500
1!
#185000
0!
#185500
1!
#186000
0!
#186500
1!
#187000
0!
#187500
1!
#188000
0!
#188500
1!
#189000
0!
#189500
1!
#190000
0!
#190500
1!
#191000
0!
#191500
1!
#192000
0!
#192500
1!
#193000
0!
#193500
1!
#194000
0!
#194500
1!
#195000
0!
#195500
1!
#196000
0!
#196500
1!
#197000
0!
#197500
1!
#198000
0!
#198500
1!
#199000
0!
#199500
1!
#200000
0!
#200500
1!
#201000
0!
#201500
1!
#201600
0,
#202000
0!
#202500
1!
#203000
0!
#203500
1!
#204000
0!
#204500
1!
#205000
0!
#205500
1!
#206000
0!
#206500
1!
#207000
0!
#207500
1!
#208000
0!
#208500
1!
#209000
0!
#209500
1!
#210000
0!
#210500
1!
#211000
0!
#211500
1!
#212000
0!
#212500
1!
#213000
0!
#213500
1!
#214000
0!
#214500
1!
#215000
0!
#215500
1!
#216000
0!
#216500
1!
#217000
0!
#217500
1!
#218000
0!
#218500
1!
#218600
1,
#219000
0!
#219500
1!
#220000
0!
#220500
1!
#221000
0!
#221500
1!
#222000
0!
#222500
1!
#223000
0!
#223500
1!
#224000
0!
#224500
1!
#225000
0!
#225500
1!
#226000
0!
#226500
1!
#227000
0!
#227500
1!
#228000
0!
#228500
1!
#229000
0!
#229500
1!
#230000
0!
#230500
1!
#231000
0!
#231500
1!
#232000
0!
#232500
1!
#233000
0!
#233500
1!
#234000
0!
#234500
1!
#235000
0!
#235500
1!
#236000
0!
#236500
1!
#237000
0!
#237500
1!
#237600
0,
#238000
0!
#238500
1!
#239000
0!
#239500
1!
#240000
0!
#240500
1!
#241000
0!
#241500
1!
#242000
0!
#242500
1!
#243000
0!
#243500
1!
#244000
0!
#244500
1!
#245000
0!
#245500
1!
#246000
0!
#246500
1!
#247000
0!
#247500
1!
#248000
0!
#248500
1!
#249000
0!
#249500
1!
#250000
0!
#250500
1!
#251000
0!
#251500
1!
#252000
0!
#252500
1!
#253000
0!
#253500
1!
#254000
0!
#254500
1!
#254600
1,
#255000
0!
#255500
1!
#256000
0!
#256500
1!
#257000
0!
#257500
1!
#258000
0!
#258500
1!
#259000
0!
#259500
1!
#260000
0!
#260500
1!
#261000
0!
#261500
1!
#262000
0!
#262500
1!
#263000
0!
#263500
1!
#264000
0!
#264500
1!
#265000
0!
#265500
1!
#266000
0!
#266500
1!
#267000
0!
#267500
1!
#268000
0!
#268500
1!
#269000
0!
#269500
1!
#270000
0!
#270500
1!
#271000
0!
#271500
1!
#272000
0!
#272500
1!
#273000
0!
#273500
1!
#273600
0,
#274000
0!
#274500
1!
#275000
0!
#275500
1!
#276000
0!
#276500
1!
#277000
0!
#277500
1!
#278000
0!
#278500
1!
#279000
0!
#279500
1!
#280000
0!
#280500
1!
#281000
0!
#281500
1!
#282000
0!
#282500
1!
#283000
0!
#283500
1!
#284000
0!
#284500
1!
#285000
0!
#285500
1!
#286000
0!
#286500
1!
#287000
0!
#287500
1!
#288000
0!
#288500
1!
#289000
0!
#289500
1!
#290000
0!
#290500
1!
#290600
1,
#291000
0!
#291500
1!
#292000
0!
#292500
1!
#293000
0!
#293500
1!
#294000
0!
#294500
1!
#295000
0!
#295500
1!
#296000
0!
#296500
1!
#297000
0!
#297500
1!
#298000
0!
#298500
1!
#299000
0!
#299500
1!
#300000
0!
#300500
1!
#301000
0!
#301500
1!
#302000
0!
#302500
1!
#303000
0!
#303500
1!
#304000
0!
#304500
1!
#305000
0!
#305500
1!
#306000
0!
#306500
1!
#307000
0!
#307500
1!
#308000
0!
#308500
1!
#309000
0!
#309500
1!
#309600
0,
#310000
0!
#310500
1!
#311000
0!
#311500
1!
#312000
0!
#312500
1!
#313000
0!
#313500
1!
#314000
0!
#314500
1!
#315000
0!
#315500
1!
#316000
0!
#316500
1!
#317000
0!
#317500
1!
#318000
0!
#318500
1!
#319000
0!
#319500
1!
#320000
0!
#320500
1!
#321000
0!
#321500
1!
#322000
0!
#322500
1!
#323000
0!
#323500
1!
#324000
0!
#324500
1!
#325000
0!
#325500
1!
#326000
0!
#326500
1!
#326600
1,
0/
#327000
0!
#327500
1!
#328000
0!
#328500
1!
#329000
0!
#329500
1!
#330000
0!
#330500
1!
#331000
0!
#331500
1!
#332000
0!
#332500
1!
#333000
0!
#333500
1!
#334000
0!
#334500
1!
#335000
0!
#335500
1!
#336000
0!
#336500
1!
#337000
0!
#337500
1!
#338000
0!
#338500
1!
#339000
0!
#339500
1!
#340000
0!
#340500
1!
#341000
0!
#341500
1!
#342000
0!
#342500
1!
#343000
0!
#343500
1!
#344000
0!
#344500
1!
#345000
0!
#345500
1!
#345600
0,
#346000
0!
#346500
1!
#347000
0!
#347500
1!
#348000
0!
#348500
1!
#349000
0!
#349500
1!
#350000
0!
#350500
1!
#351000
0!
#351500
1!
#352000
0!
#352500
1!
#353000
0!
#353500
1!
#354000
0!
#354500
1!
#355000
0!
#355500
1!
#356000
0!
#356500
1!
#357000
0!
#357500
1!
#358000
0!
#358500
1!
#359000
0!
#359500
1!
#360000
0!
#360500
1!
#361000
0!
#361500
1!
#362000
0!
#362500
1!
#362600
1,
1/
b01100 #
b00000000000000000000000000000000 '
0&
1$
#363000
0!
#363500
1!
1%
b00000000000000000000000000100001 (
#363600
b00000000000000000000000000000001 (
#364000
0!
#364500
1!
0$
0%
b00000000000000000000000000000000 (
#365000
0!
#365500
1!
#366000
0!
#366500
1!
#367000
0!
#367500
1!
#368000
0!
#368500
1!
#369000
0!
#369500
1!
#370000
0!
#370500
1!
#371000
0!
#371500
1!
#372000
0!
#372500
1!
#373000
0!
#373500
1!
#374000
0!
#374500
1!
b01000 #
b00000000000000000000000011000000 '
1&
1$
#375000
0!
#375500
1!
1%
#376000
0!
#376500
1!
0$
0%
#377000
0!
#377500
1!
#378000
0!
#378500
1!
#379000
0!
#379500
1!
#380000
0!
#380500
1!
#380600
0,
#381000
0!
#381500
1!
#382000
0!
#382500
1!
#383000
0!
#383500
1!
#384000
0!
#384500
1!
#385000
0!
#385500
1!
#386000
0!
#386500
1!
#387000
0!
#387500
1!
#388000
0!
#388500
1!
#389000
0!
#389500
1!
#390000
0!
#390500
1!
#391000
0!
#391500
1!
#391600
0.
#392000
0!
#392500
1!
#393000
0!
#393500
1!
#394000
0!
#394500
1!
#395000
0!
#395500
1!
#396000
0!
#396500
1!
#397000
0!
#397500
1!
#398000
0!
#398500
1!
#399000
0!
#399500
1!
#399600
1,
#400000
0!
#400500
1!
#401000
0!
#401500
1!
#402000
0!
#402500
1!
#403000
0!
#403500
1!
#404000
0!
#404500
1!
#405000
0!
#405500
1!
#406000
0!
#406500
1!
b00000000000000000000000000000000 '
1$
#407000
0!
#407500
1!
1%
#408000
0!
#408500
1!
0$
0%
#408600
1.
